(kicad_sch (version 20230121) (generator eeschema)

  (uuid 65747705-0111-4293-9727-1a32483d3a8d)

  (paper "A4")

  (lib_symbols
    (symbol "Connector:Conn_01x04_Socket" (pin_names (offset 1.016) hide) (in_bom yes) (on_board yes)
      (property "Reference" "J" (at 0 5.08 0)
        (effects (font (size 1.27 1.27)))
      )
      (property "Value" "Conn_01x04_Socket" (at 0 -7.62 0)
        (effects (font (size 1.27 1.27)))
      )
      (property "Footprint" "" (at 0 0 0)
        (effects (font (size 1.27 1.27)) hide)
      )
      (property "Datasheet" "~" (at 0 0 0)
        (effects (font (size 1.27 1.27)) hide)
      )
      (property "ki_locked" "" (at 0 0 0)
        (effects (font (size 1.27 1.27)))
      )
      (property "ki_keywords" "connector" (at 0 0 0)
        (effects (font (size 1.27 1.27)) hide)
      )
      (property "ki_description" "Generic connector, single row, 01x04, script generated" (at 0 0 0)
        (effects (font (size 1.27 1.27)) hide)
      )
      (property "ki_fp_filters" "Connector*:*_1x??_*" (at 0 0 0)
        (effects (font (size 1.27 1.27)) hide)
      )
      (symbol "Conn_01x04_Socket_1_1"
        (arc (start 0 -4.572) (mid -0.5058 -5.08) (end 0 -5.588)
          (stroke (width 0.1524) (type default))
          (fill (type none))
        )
        (arc (start 0 -2.032) (mid -0.5058 -2.54) (end 0 -3.048)
          (stroke (width 0.1524) (type default))
          (fill (type none))
        )
        (polyline
          (pts
            (xy -1.27 -5.08)
            (xy -0.508 -5.08)
          )
          (stroke (width 0.1524) (type default))
          (fill (type none))
        )
        (polyline
          (pts
            (xy -1.27 -2.54)
            (xy -0.508 -2.54)
          )
          (stroke (width 0.1524) (type default))
          (fill (type none))
        )
        (polyline
          (pts
            (xy -1.27 0)
            (xy -0.508 0)
          )
          (stroke (width 0.1524) (type default))
          (fill (type none))
        )
        (polyline
          (pts
            (xy -1.27 2.54)
            (xy -0.508 2.54)
          )
          (stroke (width 0.1524) (type default))
          (fill (type none))
        )
        (arc (start 0 0.508) (mid -0.5058 0) (end 0 -0.508)
          (stroke (width 0.1524) (type default))
          (fill (type none))
        )
        (arc (start 0 3.048) (mid -0.5058 2.54) (end 0 2.032)
          (stroke (width 0.1524) (type default))
          (fill (type none))
        )
        (pin passive line (at -5.08 2.54 0) (length 3.81)
          (name "Pin_1" (effects (font (size 1.27 1.27))))
          (number "1" (effects (font (size 1.27 1.27))))
        )
        (pin passive line (at -5.08 0 0) (length 3.81)
          (name "Pin_2" (effects (font (size 1.27 1.27))))
          (number "2" (effects (font (size 1.27 1.27))))
        )
        (pin passive line (at -5.08 -2.54 0) (length 3.81)
          (name "Pin_3" (effects (font (size 1.27 1.27))))
          (number "3" (effects (font (size 1.27 1.27))))
        )
        (pin passive line (at -5.08 -5.08 0) (length 3.81)
          (name "Pin_4" (effects (font (size 1.27 1.27))))
          (number "4" (effects (font (size 1.27 1.27))))
        )
      )
    )
    (symbol "MCU_Module:Arduino_Nano_v3.x" (in_bom yes) (on_board yes)
      (property "Reference" "A" (at -10.16 23.495 0)
        (effects (font (size 1.27 1.27)) (justify left bottom))
      )
      (property "Value" "Arduino_Nano_v3.x" (at 5.08 -24.13 0)
        (effects (font (size 1.27 1.27)) (justify left top))
      )
      (property "Footprint" "Module:Arduino_Nano" (at 0 0 0)
        (effects (font (size 1.27 1.27) italic) hide)
      )
      (property "Datasheet" "http://www.mouser.com/pdfdocs/Gravitech_Arduino_Nano3_0.pdf" (at 0 0 0)
        (effects (font (size 1.27 1.27)) hide)
      )
      (property "ki_keywords" "Arduino nano microcontroller module USB" (at 0 0 0)
        (effects (font (size 1.27 1.27)) hide)
      )
      (property "ki_description" "Arduino Nano v3.x" (at 0 0 0)
        (effects (font (size 1.27 1.27)) hide)
      )
      (property "ki_fp_filters" "Arduino*Nano*" (at 0 0 0)
        (effects (font (size 1.27 1.27)) hide)
      )
      (symbol "Arduino_Nano_v3.x_0_1"
        (rectangle (start -10.16 22.86) (end 10.16 -22.86)
          (stroke (width 0.254) (type default))
          (fill (type background))
        )
      )
      (symbol "Arduino_Nano_v3.x_1_1"
        (pin bidirectional line (at -12.7 12.7 0) (length 2.54)
          (name "D1/TX" (effects (font (size 1.27 1.27))))
          (number "1" (effects (font (size 1.27 1.27))))
        )
        (pin bidirectional line (at -12.7 -2.54 0) (length 2.54)
          (name "D7" (effects (font (size 1.27 1.27))))
          (number "10" (effects (font (size 1.27 1.27))))
        )
        (pin bidirectional line (at -12.7 -5.08 0) (length 2.54)
          (name "D8" (effects (font (size 1.27 1.27))))
          (number "11" (effects (font (size 1.27 1.27))))
        )
        (pin bidirectional line (at -12.7 -7.62 0) (length 2.54)
          (name "D9" (effects (font (size 1.27 1.27))))
          (number "12" (effects (font (size 1.27 1.27))))
        )
        (pin bidirectional line (at -12.7 -10.16 0) (length 2.54)
          (name "D10" (effects (font (size 1.27 1.27))))
          (number "13" (effects (font (size 1.27 1.27))))
        )
        (pin bidirectional line (at -12.7 -12.7 0) (length 2.54)
          (name "D11" (effects (font (size 1.27 1.27))))
          (number "14" (effects (font (size 1.27 1.27))))
        )
        (pin bidirectional line (at -12.7 -15.24 0) (length 2.54)
          (name "D12" (effects (font (size 1.27 1.27))))
          (number "15" (effects (font (size 1.27 1.27))))
        )
        (pin bidirectional line (at -12.7 -17.78 0) (length 2.54)
          (name "D13" (effects (font (size 1.27 1.27))))
          (number "16" (effects (font (size 1.27 1.27))))
        )
        (pin power_out line (at 2.54 25.4 270) (length 2.54)
          (name "3V3" (effects (font (size 1.27 1.27))))
          (number "17" (effects (font (size 1.27 1.27))))
        )
        (pin input line (at 12.7 5.08 180) (length 2.54)
          (name "AREF" (effects (font (size 1.27 1.27))))
          (number "18" (effects (font (size 1.27 1.27))))
        )
        (pin bidirectional line (at 12.7 0 180) (length 2.54)
          (name "A0" (effects (font (size 1.27 1.27))))
          (number "19" (effects (font (size 1.27 1.27))))
        )
        (pin bidirectional line (at -12.7 15.24 0) (length 2.54)
          (name "D0/RX" (effects (font (size 1.27 1.27))))
          (number "2" (effects (font (size 1.27 1.27))))
        )
        (pin bidirectional line (at 12.7 -2.54 180) (length 2.54)
          (name "A1" (effects (font (size 1.27 1.27))))
          (number "20" (effects (font (size 1.27 1.27))))
        )
        (pin bidirectional line (at 12.7 -5.08 180) (length 2.54)
          (name "A2" (effects (font (size 1.27 1.27))))
          (number "21" (effects (font (size 1.27 1.27))))
        )
        (pin bidirectional line (at 12.7 -7.62 180) (length 2.54)
          (name "A3" (effects (font (size 1.27 1.27))))
          (number "22" (effects (font (size 1.27 1.27))))
        )
        (pin bidirectional line (at 12.7 -10.16 180) (length 2.54)
          (name "A4" (effects (font (size 1.27 1.27))))
          (number "23" (effects (font (size 1.27 1.27))))
        )
        (pin bidirectional line (at 12.7 -12.7 180) (length 2.54)
          (name "A5" (effects (font (size 1.27 1.27))))
          (number "24" (effects (font (size 1.27 1.27))))
        )
        (pin bidirectional line (at 12.7 -15.24 180) (length 2.54)
          (name "A6" (effects (font (size 1.27 1.27))))
          (number "25" (effects (font (size 1.27 1.27))))
        )
        (pin bidirectional line (at 12.7 -17.78 180) (length 2.54)
          (name "A7" (effects (font (size 1.27 1.27))))
          (number "26" (effects (font (size 1.27 1.27))))
        )
        (pin power_out line (at 5.08 25.4 270) (length 2.54)
          (name "+5V" (effects (font (size 1.27 1.27))))
          (number "27" (effects (font (size 1.27 1.27))))
        )
        (pin input line (at 12.7 15.24 180) (length 2.54)
          (name "~{RESET}" (effects (font (size 1.27 1.27))))
          (number "28" (effects (font (size 1.27 1.27))))
        )
        (pin power_in line (at 2.54 -25.4 90) (length 2.54)
          (name "GND" (effects (font (size 1.27 1.27))))
          (number "29" (effects (font (size 1.27 1.27))))
        )
        (pin input line (at 12.7 12.7 180) (length 2.54)
          (name "~{RESET}" (effects (font (size 1.27 1.27))))
          (number "3" (effects (font (size 1.27 1.27))))
        )
        (pin power_in line (at -2.54 25.4 270) (length 2.54)
          (name "VIN" (effects (font (size 1.27 1.27))))
          (number "30" (effects (font (size 1.27 1.27))))
        )
        (pin power_in line (at 0 -25.4 90) (length 2.54)
          (name "GND" (effects (font (size 1.27 1.27))))
          (number "4" (effects (font (size 1.27 1.27))))
        )
        (pin bidirectional line (at -12.7 10.16 0) (length 2.54)
          (name "D2" (effects (font (size 1.27 1.27))))
          (number "5" (effects (font (size 1.27 1.27))))
        )
        (pin bidirectional line (at -12.7 7.62 0) (length 2.54)
          (name "D3" (effects (font (size 1.27 1.27))))
          (number "6" (effects (font (size 1.27 1.27))))
        )
        (pin bidirectional line (at -12.7 5.08 0) (length 2.54)
          (name "D4" (effects (font (size 1.27 1.27))))
          (number "7" (effects (font (size 1.27 1.27))))
        )
        (pin bidirectional line (at -12.7 2.54 0) (length 2.54)
          (name "D5" (effects (font (size 1.27 1.27))))
          (number "8" (effects (font (size 1.27 1.27))))
        )
        (pin bidirectional line (at -12.7 0 0) (length 2.54)
          (name "D6" (effects (font (size 1.27 1.27))))
          (number "9" (effects (font (size 1.27 1.27))))
        )
      )
    )
    (symbol "power:GND" (power) (pin_names (offset 0)) (in_bom yes) (on_board yes)
      (property "Reference" "#PWR" (at 0 -6.35 0)
        (effects (font (size 1.27 1.27)) hide)
      )
      (property "Value" "GND" (at 0 -3.81 0)
        (effects (font (size 1.27 1.27)))
      )
      (property "Footprint" "" (at 0 0 0)
        (effects (font (size 1.27 1.27)) hide)
      )
      (property "Datasheet" "" (at 0 0 0)
        (effects (font (size 1.27 1.27)) hide)
      )
      (property "ki_keywords" "global power" (at 0 0 0)
        (effects (font (size 1.27 1.27)) hide)
      )
      (property "ki_description" "Power symbol creates a global label with name \"GND\" , ground" (at 0 0 0)
        (effects (font (size 1.27 1.27)) hide)
      )
      (symbol "GND_0_1"
        (polyline
          (pts
            (xy 0 0)
            (xy 0 -1.27)
            (xy 1.27 -1.27)
            (xy 0 -2.54)
            (xy -1.27 -1.27)
            (xy 0 -1.27)
          )
          (stroke (width 0) (type default))
          (fill (type none))
        )
      )
      (symbol "GND_1_1"
        (pin power_in line (at 0 0 270) (length 0) hide
          (name "GND" (effects (font (size 1.27 1.27))))
          (number "1" (effects (font (size 1.27 1.27))))
        )
      )
    )
    (symbol "power:VCC" (power) (pin_names (offset 0)) (in_bom yes) (on_board yes)
      (property "Reference" "#PWR" (at 0 -3.81 0)
        (effects (font (size 1.27 1.27)) hide)
      )
      (property "Value" "VCC" (at 0 3.81 0)
        (effects (font (size 1.27 1.27)))
      )
      (property "Footprint" "" (at 0 0 0)
        (effects (font (size 1.27 1.27)) hide)
      )
      (property "Datasheet" "" (at 0 0 0)
        (effects (font (size 1.27 1.27)) hide)
      )
      (property "ki_keywords" "global power" (at 0 0 0)
        (effects (font (size 1.27 1.27)) hide)
      )
      (property "ki_description" "Power symbol creates a global label with name \"VCC\"" (at 0 0 0)
        (effects (font (size 1.27 1.27)) hide)
      )
      (symbol "VCC_0_1"
        (polyline
          (pts
            (xy -0.762 1.27)
            (xy 0 2.54)
          )
          (stroke (width 0) (type default))
          (fill (type none))
        )
        (polyline
          (pts
            (xy 0 0)
            (xy 0 2.54)
          )
          (stroke (width 0) (type default))
          (fill (type none))
        )
        (polyline
          (pts
            (xy 0 2.54)
            (xy 0.762 1.27)
          )
          (stroke (width 0) (type default))
          (fill (type none))
        )
      )
      (symbol "VCC_1_1"
        (pin power_in line (at 0 0 90) (length 0) hide
          (name "VCC" (effects (font (size 1.27 1.27))))
          (number "1" (effects (font (size 1.27 1.27))))
        )
      )
    )
  )

  (junction (at 142.24 116.84) (diameter 0) (color 0 0 0 0)
    (uuid b8b959d1-5d4d-46c5-b7bd-9d0f6b2931d2)
  )

  (wire (pts (xy 165.1 62.23) (xy 165.1 101.6))
    (stroke (width 0) (type default))
    (uuid 02162ccc-8de1-4fe7-b5b2-48c708d3477c)
  )
  (wire (pts (xy 91.44 92.71) (xy 88.9 92.71))
    (stroke (width 0) (type default))
    (uuid 0ab6b959-6b7f-4870-ba0a-e52be462ad22)
  )
  (wire (pts (xy 88.9 59.69) (xy 167.64 59.69))
    (stroke (width 0) (type default))
    (uuid 1bca1cf4-f381-469e-80e0-653f60feb403)
  )
  (wire (pts (xy 167.64 104.14) (xy 154.94 104.14))
    (stroke (width 0) (type default))
    (uuid 237190eb-5b42-49b5-b922-7784272daf2c)
  )
  (wire (pts (xy 88.9 95.25) (xy 91.44 95.25))
    (stroke (width 0) (type default))
    (uuid 261e15ec-0451-4aa7-a7f5-6ea8221ffcb8)
  )
  (wire (pts (xy 167.64 59.69) (xy 167.64 104.14))
    (stroke (width 0) (type default))
    (uuid 42f4ab32-4cde-4651-98f4-713b479a7dd4)
  )
  (wire (pts (xy 142.24 116.84) (xy 142.24 123.19))
    (stroke (width 0) (type default))
    (uuid 47cf152b-91eb-45ec-b87a-cd02fbdf04ed)
  )
  (wire (pts (xy 142.24 116.84) (xy 144.78 116.84))
    (stroke (width 0) (type default))
    (uuid 49086600-04c0-449e-b793-82dd6c6b0c45)
  )
  (wire (pts (xy 91.44 97.79) (xy 91.44 101.6))
    (stroke (width 0) (type default))
    (uuid 5e5b1993-6706-4103-8352-9bbc1a68ea5d)
  )
  (wire (pts (xy 91.44 90.17) (xy 91.44 62.23))
    (stroke (width 0) (type default))
    (uuid 990628c4-0bcd-4262-82aa-a3269532fb16)
  )
  (wire (pts (xy 91.44 62.23) (xy 165.1 62.23))
    (stroke (width 0) (type default))
    (uuid b4aca77f-50d8-4d14-b352-326094754497)
  )
  (wire (pts (xy 88.9 92.71) (xy 88.9 59.69))
    (stroke (width 0) (type default))
    (uuid d395d2f4-4584-4dbf-b708-581f8549e852)
  )
  (wire (pts (xy 165.1 101.6) (xy 154.94 101.6))
    (stroke (width 0) (type default))
    (uuid edd6af7d-5370-4dff-b850-e8d97f8617f1)
  )

  (symbol (lib_id "power:GND") (at 88.9 95.25 0) (unit 1)
    (in_bom yes) (on_board yes) (dnp no) (fields_autoplaced)
    (uuid 10b8b0ea-dde7-4088-a8a3-681fbb982e82)
    (property "Reference" "#PWR01" (at 88.9 101.6 0)
      (effects (font (size 1.27 1.27)) hide)
    )
    (property "Value" "GND" (at 88.9 100.33 0)
      (effects (font (size 1.27 1.27)))
    )
    (property "Footprint" "" (at 88.9 95.25 0)
      (effects (font (size 1.27 1.27)) hide)
    )
    (property "Datasheet" "" (at 88.9 95.25 0)
      (effects (font (size 1.27 1.27)) hide)
    )
    (pin "1" (uuid 9f63591c-c168-443f-ba33-91b503594d12))
    (instances
      (project "v1.0"
        (path "/65747705-0111-4293-9727-1a32483d3a8d"
          (reference "#PWR01") (unit 1)
        )
      )
    )
  )

  (symbol (lib_id "Connector:Conn_01x04_Socket") (at 96.52 92.71 0) (unit 1)
    (in_bom yes) (on_board yes) (dnp no) (fields_autoplaced)
    (uuid 1e6ab871-ae78-4358-bb83-88ec57dbe61a)
    (property "Reference" "J1" (at 97.79 93.345 0)
      (effects (font (size 1.27 1.27)) (justify left))
    )
    (property "Value" "BMP180" (at 97.79 95.885 0)
      (effects (font (size 1.27 1.27)) (justify left))
    )
    (property "Footprint" "Connector_PinHeader_2.54mm:PinHeader_1x04_P2.54mm_Vertical" (at 96.52 92.71 0)
      (effects (font (size 1.27 1.27)) hide)
    )
    (property "Datasheet" "~" (at 96.52 92.71 0)
      (effects (font (size 1.27 1.27)) hide)
    )
    (pin "1" (uuid 04077e72-8107-4055-9abf-c835c6e46c14))
    (pin "2" (uuid da8481b9-b365-4e6d-b972-a4099e0cad74))
    (pin "3" (uuid d3958a96-76b5-4123-ba67-c1b48f342c0b))
    (pin "4" (uuid 8f18389e-c9ee-4e7f-8f0d-48e02f6ed413))
    (instances
      (project "v1.0"
        (path "/65747705-0111-4293-9727-1a32483d3a8d"
          (reference "J1") (unit 1)
        )
      )
    )
  )

  (symbol (lib_id "MCU_Module:Arduino_Nano_v3.x") (at 142.24 91.44 0) (unit 1)
    (in_bom yes) (on_board yes) (dnp no) (fields_autoplaced)
    (uuid e147bbf1-bf32-4344-8792-d8daebc0ce7d)
    (property "Reference" "A1" (at 146.7359 116.84 0)
      (effects (font (size 1.27 1.27)) (justify left))
    )
    (property "Value" "Arduino_Nano_v3.x" (at 146.7359 119.38 0)
      (effects (font (size 1.27 1.27)) (justify left))
    )
    (property "Footprint" "Module:Arduino_Nano_WithMountingHoles" (at 142.24 91.44 0)
      (effects (font (size 1.27 1.27) italic) hide)
    )
    (property "Datasheet" "http://www.mouser.com/pdfdocs/Gravitech_Arduino_Nano3_0.pdf" (at 142.24 91.44 0)
      (effects (font (size 1.27 1.27)) hide)
    )
    (pin "1" (uuid 7b7a2de2-12bc-4ac4-8443-8eea4a503f0a))
    (pin "10" (uuid d0562740-4bfd-4d0e-805e-e2417f356fb5))
    (pin "11" (uuid 9a042c74-cc9b-41dc-8727-6b628ef2b151))
    (pin "12" (uuid 329e6610-0368-4bb7-aff8-f0865d6133e2))
    (pin "13" (uuid dbcd04b6-3c01-4804-b006-2fed9a9a59a7))
    (pin "14" (uuid b353ebb4-38dc-4347-840c-99ad11648607))
    (pin "15" (uuid ea37fbd9-5729-4254-adde-23415e52984b))
    (pin "16" (uuid 0a7f10f8-e712-4721-b663-19c5856177a0))
    (pin "17" (uuid b4e3c972-de12-4e63-911c-7389ad269388))
    (pin "18" (uuid e48aeced-6c48-4701-b9b8-d4d69a987849))
    (pin "19" (uuid 3ce0a783-25d1-441f-b504-739db9946678))
    (pin "2" (uuid 3fa699da-8241-4867-991b-a0e9523ed9a1))
    (pin "20" (uuid 84355ca0-8265-41ea-b992-61d5e53d791a))
    (pin "21" (uuid 9a933ed5-0cb6-4b44-8b02-ae55f1a43d16))
    (pin "22" (uuid 1043c02a-af38-4fb0-ab11-4e9acc35c097))
    (pin "23" (uuid 791037fc-1a01-45fe-a783-f07aadcb9b15))
    (pin "24" (uuid d4996143-024d-4930-8bfe-b5f53d143dae))
    (pin "25" (uuid b0835f89-4742-49ac-867a-f468e56224f2))
    (pin "26" (uuid d35351b7-cf02-4cac-8921-f6987b2e0aec))
    (pin "27" (uuid 56dce41d-9071-47a9-8778-e16a6182f937))
    (pin "28" (uuid f95ae1a4-fe09-44c3-b316-d52af5b3f939))
    (pin "29" (uuid 1fd9cced-17f0-49c5-a8a1-a4e37618aaaa))
    (pin "3" (uuid 7a053d3c-cbd3-412f-827c-7b1c623ef83f))
    (pin "30" (uuid 34f28126-b873-420a-9d78-613761d8d115))
    (pin "4" (uuid 5e251e66-c03b-4f8a-b985-778b1b303b46))
    (pin "5" (uuid 2f5e2699-c7b9-47ab-85f4-02785f97d8ca))
    (pin "6" (uuid 5d23de43-5002-4c6d-9ccf-b55b09a1b3e4))
    (pin "7" (uuid 40edeb39-00c4-4f34-b413-d69938dd2699))
    (pin "8" (uuid e7507231-7535-4e51-840f-fdc0dd426d32))
    (pin "9" (uuid 1b307d21-e63f-4592-a5ba-1a64064dee67))
    (instances
      (project "v1.0"
        (path "/65747705-0111-4293-9727-1a32483d3a8d"
          (reference "A1") (unit 1)
        )
      )
    )
  )

  (symbol (lib_id "power:VCC") (at 91.44 101.6 180) (unit 1)
    (in_bom yes) (on_board yes) (dnp no) (fields_autoplaced)
    (uuid e80ea016-b0d6-4204-a472-78b2b6aca6cf)
    (property "Reference" "#PWR02" (at 91.44 97.79 0)
      (effects (font (size 1.27 1.27)) hide)
    )
    (property "Value" "VCC" (at 91.44 106.68 0)
      (effects (font (size 1.27 1.27)))
    )
    (property "Footprint" "" (at 91.44 101.6 0)
      (effects (font (size 1.27 1.27)) hide)
    )
    (property "Datasheet" "" (at 91.44 101.6 0)
      (effects (font (size 1.27 1.27)) hide)
    )
    (pin "1" (uuid ff5a22d2-07dc-4e69-aa1d-4055ee5d702b))
    (instances
      (project "v1.0"
        (path "/65747705-0111-4293-9727-1a32483d3a8d"
          (reference "#PWR02") (unit 1)
        )
      )
    )
  )

  (symbol (lib_id "power:GND") (at 142.24 123.19 0) (unit 1)
    (in_bom yes) (on_board yes) (dnp no) (fields_autoplaced)
    (uuid f08aa205-ac66-4e77-ae79-6b5b82bc7286)
    (property "Reference" "#PWR03" (at 142.24 129.54 0)
      (effects (font (size 1.27 1.27)) hide)
    )
    (property "Value" "GND" (at 142.24 128.27 0)
      (effects (font (size 1.27 1.27)))
    )
    (property "Footprint" "" (at 142.24 123.19 0)
      (effects (font (size 1.27 1.27)) hide)
    )
    (property "Datasheet" "" (at 142.24 123.19 0)
      (effects (font (size 1.27 1.27)) hide)
    )
    (pin "1" (uuid d9ec02e9-6129-4d48-961a-2a375a4bb653))
    (instances
      (project "v1.0"
        (path "/65747705-0111-4293-9727-1a32483d3a8d"
          (reference "#PWR03") (unit 1)
        )
      )
    )
  )

  (sheet_instances
    (path "/" (page "1"))
  )
)
